              01  001110101000                 110  
101           0110011001001001101111100111100100110110001011
101100000011100101100001110100010100100001110110000111110010
11001011011101000101110010011011100000111011110111011101    
000             001111111010000110010101010101010
               111010010010  001011100  
              11011100100    00010        
             10110000110      00111        
            10111011111         00100      
           11101111010