<?xml version="1.0" standalone="no"?>
<!DOCTYPE svg PUBLIC "-//W3C//DTD SVG 1.1//EN" "http://www.w3.org/Graphics/SVG/1.1/DTD/svg11.dtd">
<svg xmlns="http://www.w3.org/2000/svg">
<metadata>Copyright (C) 2017 by original authors @ fontello.com</metadata>
<defs>
<font id="fontello" horiz-adv-x="1000" >
<font-face font-family="fontello" font-weight="400" font-stretch="normal" units-per-em="1000" ascent="850" descent="-150" />
<missing-glyph horiz-adv-x="1000" />
<glyph glyph-name="github-circled" unicode="&#xf09b;" d="M429 779q116 0 215-58t156-156 57-215q0-140-82-252t-211-155q-15-3-22 4t-7 17q0 1 0 43t0 75q0 54-29 79 32 3 57 10t53 22 45 37 30 58 11 84q0 67-44 115 21 51-4 114-16 5-46-6t-51-25l-21-13q-52 15-107 15t-108-15q-8 6-23 15t-47 22-47 7q-25-63-5-114-44-48-44-115 0-47 12-83t29-59 45-37 52-22 57-10q-21-20-27-58-12-5-25-8t-32-3-36 12-31 35q-11 18-27 29t-28 14l-11 1q-12 0-16-2t-3-7 5-8 7-6l4-3q12-6 24-21t18-29l6-13q7-21 24-34t37-17 39-3 31 1l13 3q0-22 0-50t1-30q0-10-8-17t-22-4q-129 43-211 155t-82 252q0 117 58 215t155 156 216 58z m-267-616q2 4-3 7-6 1-8-1-1-4 4-7 5-3 7 1z m18-19q4 3-1 9-6 5-9 2-4-3 1-9 5-6 9-2z m16-25q6 4 0 11-4 7-9 3-5-3 0-10t9-4z m24-23q4 4-2 10-7 7-11 2-5-5 2-11 6-6 11-1z m32-14q1 6-8 9-8 2-10-4t7-9q8-3 11 4z m35-3q0 7-10 6-9 0-9-6 0-7 10-6 9 0 9 6z m32 5q-1 7-10 5-9-1-8-8t10-4 8 7z" horiz-adv-x="857.1" />

<glyph glyph-name="mail-alt" unicode="&#xf0e0;" d="M1000 454v-443q0-37-26-63t-63-27h-822q-36 0-63 27t-26 63v443q25-27 56-49 202-137 278-192 32-24 51-37t53-27 61-13h2q28 0 61 13t53 27 51 37q95 68 278 192 32 22 56 49z m0 164q0-44-27-84t-68-69q-210-146-262-181-5-4-23-17t-30-22-29-18-32-15-28-5h-2q-12 0-27 5t-32 15-30 18-30 22-23 17q-51 35-147 101t-114 80q-35 23-65 64t-31 77q0 43 23 72t66 29h822q36 0 63-26t26-63z" horiz-adv-x="1000" />

<glyph glyph-name="rss-squared" unicode="&#xf143;" d="M286 136q0 29-21 50t-51 21-50-21-21-50 21-51 50-21 51 21 21 51z m196-53q-8 130-99 222t-221 98q-8 1-14-5t-5-13v-71q0-7 5-12t12-6q86-6 147-68t67-147q1-7 6-12t12-5h72q7 0 13 6t5 13z m214 0q-3 86-31 166t-78 145-115 114-145 78-166 31q-7 1-13-5-5-5-5-13v-71q0-7 5-12t12-6q114-4 211-62t156-155 62-211q0-8 5-13t13-5h71q7 0 13 6 6 5 5 13z m161 535v-536q0-66-47-113t-114-48h-535q-67 0-114 48t-47 113v536q0 66 47 113t114 48h535q67 0 114-48t47-113z" horiz-adv-x="857.1" />

<glyph glyph-name="reddit" unicode="&#xf1a1;" d="M611 199q9-9 0-17-34-35-111-35t-111 35q-9 8 0 17 3 3 8 3t9-3q27-28 94-28 67 0 94 28 4 3 9 3t8-3z m-171 101q0-21-15-35t-35-15-35 15-15 35q0 21 15 36t35 14 35-15 15-35z m220 0q0-21-15-35t-35-15-35 15-15 35 15 35 35 15 35-14 15-36z m140 67q0 27-19 47t-48 19-48-20q-72 50-173 54l35 158 112-26q0-20 14-35t35-14 36 15 14 35-14 35-36 15q-30 0-44-28l-124 28q-10 3-14-9l-38-174q-101-4-173-54-19 20-48 20-28 0-48-19t-19-47q0-20 10-36t28-24q-4-16-4-32 0-79 79-135t188-57q110 0 188 57t78 135q0 18-4 32 17 8 27 24t10 36z m200-17q0-102-40-194t-106-160-160-106-194-40-194 40-160 106-106 160-40 194 40 194 106 160 160 106 194 40 194-40 160-106 106-160 40-194z" horiz-adv-x="1000" />

<glyph glyph-name="twitter-squared" unicode="&#xf304;" d="M714 510q-31-14-67-19 38 22 52 65-37-21-75-28-34 36-85 36-49 0-83-34t-35-83q0-16 3-27-72 4-135 37t-107 86q-16-28-16-59 0-64 51-98-27 1-56 15v-1q0-42 28-75t68-40q-16-5-28-5-7 0-22 3 12-36 42-59t67-23q-64-50-145-50-15 0-28 2 82-53 180-53 62 0 117 20t94 53 67 76 42 91 13 94q0 10 0 15 35 25 58 61z m143 108v-536q0-66-47-113t-114-48h-535q-67 0-114 48t-47 113v536q0 66 47 113t114 48h535q67 0 114-48t47-113z" horiz-adv-x="857.1" />
</font>
</defs>
</svg>